{
  "id": "1",
  "assets": [
    {
      "id": "1",
      "name": "Sherlock Holmes",
      "route": "104"
    },
    {
      "id": "2",
      "name": "Tony Stark",
      "route": "1050"
    },
    {
      "id": "3",
      "name": "Neo",
      "route": "31"
    }
  ]
}