{
  "id": 1,
  "assets": [
    {
      "id": 1,
      "route": 1506,
      "name": "Stephenson Ramos"
    },
    {
      "id": 2,
      "route": 1009,
      "name": "Autumn Fernandez"
    },
    {
      "id": 3,
      "route": 252,
      "name": "Reid Barr"
    },
    {
      "id": 4,
      "route": 1304,
      "name": "Fisher Yates"
    },
    {
      "id": 5,
      "route": 131,
      "name": "Pittman Lawson"
    },
    {
      "id": 6,
      "route": 2405,
      "name": "Irwin Riley"
    },
    {
      "id": 7,
      "route": 1756,
      "name": "Mcclain Mack"
    },
    {
      "id": 8,
      "route": 314,
      "name": "Ford Mcintyre"
    },
    {
      "id": 9,
      "route": 823,
      "name": "Geneva Luna"
    },
    {
      "id": 10,
      "route": 2021,
      "name": "Francis Bowman"
    },
    {
      "id": 11,
      "route": 2214,
      "name": "Haynes Chaney"
    },
    {
      "id": 12,
      "route": 1555,
      "name": "Eve Hays"
    },
    {
      "id": 13,
      "route": 1935,
      "name": "Calhoun Peters"
    },
    {
      "id": 14,
      "route": 324,
      "name": "Christy Greer"
    },
    {
      "id": 15,
      "route": 271,
      "name": "Rosanne Santos"
    },
    {
      "id": 16,
      "route": 2298,
      "name": "Tonia Stokes"
    },
    {
      "id": 17,
      "route": 1372,
      "name": "Joseph Hernandez"
    },
    {
      "id": 18,
      "route": 1325,
      "name": "Freeman Wells"
    },
    {
      "id": 19,
      "route": 621,
      "name": "Melendez Lowe"
    },
    {
      "id": 20,
      "route": 629,
      "name": "Sheri Elliott"
    },
    {
      "id": 21,
      "route": 2001,
      "name": "Martha Flores"
    },
    {
      "id": 22,
      "route": 1925,
      "name": "Anastasia Barrera"
    },
    {
      "id": 23,
      "route": 878,
      "name": "Irma Vega"
    },
    {
      "id": 24,
      "route": 479,
      "name": "Stout Gallagher"
    },
    {
      "id": 25,
      "route": 2350,
      "name": "Ellen Wade"
    },
    {
      "id": 26,
      "route": 1779,
      "name": "Richmond Hahn"
    },
    {
      "id": 27,
      "route": 1071,
      "name": "Vaughn Jenkins"
    },
    {
      "id": 28,
      "route": 1013,
      "name": "Franks Brown"
    },
    {
      "id": 29,
      "route": 1048,
      "name": "Letha Gilliam"
    },
    {
      "id": 30,
      "route": 254,
      "name": "Alissa Martinez"
    },
    {
      "id": 31,
      "route": 2487,
      "name": "Summers Marsh"
    },
    {
      "id": 32,
      "route": 130,
      "name": "Kirsten Mcdowell"
    },
    {
      "id": 33,
      "route": 1529,
      "name": "Elvia Johns"
    },
    {
      "id": 34,
      "route": 1025,
      "name": "Payne Patterson"
    },
    {
      "id": 35,
      "route": 948,
      "name": "Rodriguez Goff"
    },
    {
      "id": 36,
      "route": 476,
      "name": "Chandler Farrell"
    },
    {
      "id": 37,
      "route": 1784,
      "name": "Patterson William"
    },
    {
      "id": 38,
      "route": 1059,
      "name": "Shelley Bryant"
    },
    {
      "id": 39,
      "route": 1129,
      "name": "Odonnell Frank"
    },
    {
      "id": 40,
      "route": 2044,
      "name": "Carmen Branch"
    },
    {
      "id": 41,
      "route": 403,
      "name": "Lacey Simmons"
    },
    {
      "id": 42,
      "route": 1581,
      "name": "Taylor Carter"
    },
    {
      "id": 43,
      "route": 1323,
      "name": "Lynnette Villarreal"
    },
    {
      "id": 44,
      "route": 314,
      "name": "Page Lester"
    },
    {
      "id": 45,
      "route": 719,
      "name": "Estella Quinn"
    },
    {
      "id": 46,
      "route": 1297,
      "name": "Elaine Giles"
    },
    {
      "id": 47,
      "route": 1972,
      "name": "Pate Mendez"
    },
    {
      "id": 48,
      "route": 1670,
      "name": "Teresa Newton"
    },
    {
      "id": 49,
      "route": 514,
      "name": "Kellie Cantu"
    },
    {
      "id": 50,
      "route": 219,
      "name": "Trujillo Cleveland"
    },
    {
      "id": 51,
      "route": 2084,
      "name": "Maxwell Tyler"
    },
    {
      "id": 52,
      "route": 182,
      "name": "Clara Cotton"
    },
    {
      "id": 53,
      "route": 130,
      "name": "Humphrey Frederick"
    },
    {
      "id": 54,
      "route": 1933,
      "name": "Emilia Brennan"
    },
    {
      "id": 55,
      "route": 944,
      "name": "Rivas Marquez"
    },
    {
      "id": 56,
      "route": 1213,
      "name": "Alyson Pearson"
    },
    {
      "id": 57,
      "route": 682,
      "name": "Henderson Todd"
    },
    {
      "id": 58,
      "route": 2168,
      "name": "Velasquez Hensley"
    },
    {
      "id": 59,
      "route": 2212,
      "name": "Maldonado Terry"
    },
    {
      "id": 60,
      "route": 615,
      "name": "Joyce Delaney"
    },
    {
      "id": 61,
      "route": 105,
      "name": "Tania Montoya"
    },
    {
      "id": 62,
      "route": 2113,
      "name": "Ortiz Harvey"
    },
    {
      "id": 63,
      "route": 1743,
      "name": "Margarita Baird"
    },
    {
      "id": 64,
      "route": 2418,
      "name": "Lara Mcclain"
    },
    {
      "id": 65,
      "route": 786,
      "name": "Deleon Carr"
    },
    {
      "id": 66,
      "route": 2034,
      "name": "Curry Torres"
    },
    {
      "id": 67,
      "route": 653,
      "name": "Sasha Wilkinson"
    },
    {
      "id": 68,
      "route": 864,
      "name": "Lynch Mathews"
    },
    {
      "id": 69,
      "route": 1557,
      "name": "Socorro Olsen"
    },
    {
      "id": 70,
      "route": 1967,
      "name": "Lawson Barnes"
    },
    {
      "id": 71,
      "route": 1085,
      "name": "Deanne Freeman"
    },
    {
      "id": 72,
      "route": 328,
      "name": "Robertson Dean"
    },
    {
      "id": 73,
      "route": 1400,
      "name": "Gonzales Campos"
    },
    {
      "id": 74,
      "route": 450,
      "name": "Booker Stone"
    },
    {
      "id": 75,
      "route": 360,
      "name": "Maddox Hughes"
    },
    {
      "id": 76,
      "route": 1434,
      "name": "Copeland Conway"
    },
    {
      "id": 77,
      "route": 562,
      "name": "Spencer Koch"
    },
    {
      "id": 78,
      "route": 2500,
      "name": "Mallory Mcleod"
    },
    {
      "id": 79,
      "route": 420,
      "name": "Nadia Foley"
    },
    {
      "id": 80,
      "route": 269,
      "name": "Kaye Bauer"
    },
    {
      "id": 81,
      "route": 1546,
      "name": "Katina Briggs"
    },
    {
      "id": 82,
      "route": 461,
      "name": "Lea Armstrong"
    },
    {
      "id": 83,
      "route": 1226,
      "name": "Debra Barrett"
    },
    {
      "id": 84,
      "route": 2375,
      "name": "Clements Davenport"
    },
    {
      "id": 85,
      "route": 524,
      "name": "Willa Pope"
    },
    {
      "id": 86,
      "route": 282,
      "name": "Rivera Norton"
    },
    {
      "id": 87,
      "route": 2172,
      "name": "Albert Patrick"
    },
    {
      "id": 88,
      "route": 2467,
      "name": "Sherri Ray"
    },
    {
      "id": 89,
      "route": 1119,
      "name": "Nola Vazquez"
    },
    {
      "id": 90,
      "route": 210,
      "name": "Davidson Richards"
    },
    {
      "id": 91,
      "route": 1798,
      "name": "Joan Beard"
    },
    {
      "id": 92,
      "route": 1731,
      "name": "Riggs Potter"
    },
    {
      "id": 93,
      "route": 1032,
      "name": "Bryant Rivera"
    },
    {
      "id": 94,
      "route": 1382,
      "name": "Wilcox English"
    },
    {
      "id": 95,
      "route": 311,
      "name": "Carrillo Underwood"
    },
    {
      "id": 96,
      "route": 1345,
      "name": "Jeannine Jacobson"
    },
    {
      "id": 97,
      "route": 1479,
      "name": "Neva Mueller"
    },
    {
      "id": 98,
      "route": 1876,
      "name": "Moss Franks"
    },
    {
      "id": 99,
      "route": 1007,
      "name": "Rebecca Matthews"
    },
    {
      "id": 100,
      "route": 1929,
      "name": "Riddle Foley"
    },
    {
      "id": 101,
      "route": 1796,
      "name": "Pat Francis"
    },
    {
      "id": 102,
      "route": 1384,
      "name": "Laurel Henderson"
    },
    {
      "id": 103,
      "route": 786,
      "name": "Barr Pace"
    },
    {
      "id": 104,
      "route": 2188,
      "name": "Margery Snider"
    },
    {
      "id": 105,
      "route": 159,
      "name": "Stevenson Dickson"
    },
    {
      "id": 106,
      "route": 1500,
      "name": "Sanchez Heath"
    },
    {
      "id": 107,
      "route": 2163,
      "name": "Melinda Tucker"
    },
    {
      "id": 108,
      "route": 2195,
      "name": "Charlotte Chambers"
    },
    {
      "id": 109,
      "route": 728,
      "name": "Latisha York"
    },
    {
      "id": 110,
      "route": 1977,
      "name": "Kelsey Roach"
    },
    {
      "id": 111,
      "route": 639,
      "name": "Sarah Rollins"
    },
    {
      "id": 112,
      "route": 1482,
      "name": "Gomez Burt"
    },
    {
      "id": 113,
      "route": 1819,
      "name": "Chandra Cotton"
    },
    {
      "id": 114,
      "route": 2375,
      "name": "Guthrie Ellis"
    },
    {
      "id": 115,
      "route": 1543,
      "name": "Mariana Butler"
    },
    {
      "id": 116,
      "route": 699,
      "name": "Jensen Foreman"
    },
    {
      "id": 117,
      "route": 389,
      "name": "Baker Hines"
    },
    {
      "id": 118,
      "route": 281,
      "name": "Marjorie Frank"
    },
    {
      "id": 119,
      "route": 1983,
      "name": "Hoffman Deleon"
    },
    {
      "id": 120,
      "route": 157,
      "name": "Leon Good"
    },
    {
      "id": 121,
      "route": 642,
      "name": "Atkins Hancock"
    },
    {
      "id": 122,
      "route": 2437,
      "name": "Hurst Conrad"
    },
    {
      "id": 123,
      "route": 1025,
      "name": "Lorraine Christensen"
    },
    {
      "id": 124,
      "route": 801,
      "name": "Louise Gay"
    },
    {
      "id": 125,
      "route": 153,
      "name": "Vicky Roberts"
    },
    {
      "id": 126,
      "route": 192,
      "name": "Wolfe Joseph"
    },
    {
      "id": 127,
      "route": 1175,
      "name": "Jo Rodgers"
    },
    {
      "id": 128,
      "route": 2499,
      "name": "Hansen Gilbert"
    },
    {
      "id": 129,
      "route": 2337,
      "name": "Underwood Molina"
    },
    {
      "id": 130,
      "route": 1931,
      "name": "Dillon Weaver"
    },
    {
      "id": 131,
      "route": 1813,
      "name": "Stuart Young"
    },
    {
      "id": 132,
      "route": 1143,
      "name": "Cara Harrington"
    },
    {
      "id": 133,
      "route": 1247,
      "name": "Araceli Carr"
    },
    {
      "id": 134,
      "route": 2144,
      "name": "Chapman Schneider"
    },
    {
      "id": 135,
      "route": 2464,
      "name": "Keri Head"
    },
    {
      "id": 136,
      "route": 1008,
      "name": "Pena Weiss"
    },
    {
      "id": 137,
      "route": 773,
      "name": "Roxanne Bullock"
    },
    {
      "id": 138,
      "route": 2021,
      "name": "Sargent Johnston"
    },
    {
      "id": 139,
      "route": 938,
      "name": "Bradley Roth"
    },
    {
      "id": 140,
      "route": 1090,
      "name": "Foreman Bruce"
    },
    {
      "id": 141,
      "route": 1018,
      "name": "Hunt Owens"
    },
    {
      "id": 142,
      "route": 2118,
      "name": "Chavez Mcgee"
    },
    {
      "id": 143,
      "route": 1286,
      "name": "Nikki West"
    },
    {
      "id": 144,
      "route": 1557,
      "name": "Mercado Barton"
    },
    {
      "id": 145,
      "route": 421,
      "name": "Jenkins Armstrong"
    },
    {
      "id": 146,
      "route": 119,
      "name": "Magdalena Reid"
    },
    {
      "id": 147,
      "route": 2469,
      "name": "Roth Duran"
    },
    {
      "id": 148,
      "route": 1843,
      "name": "Regina Blake"
    },
    {
      "id": 149,
      "route": 855,
      "name": "West Powell"
    },
    {
      "id": 150,
      "route": 2375,
      "name": "Conner Blackburn"
    },
    {
      "id": 151,
      "route": 864,
      "name": "Mcintyre Lawrence"
    },
    {
      "id": 152,
      "route": 2026,
      "name": "Lacy Brown"
    },
    {
      "id": 153,
      "route": 1725,
      "name": "Hilary Rios"
    },
    {
      "id": 154,
      "route": 1178,
      "name": "Gloria Griffin"
    },
    {
      "id": 155,
      "route": 1853,
      "name": "Price Gilmore"
    },
    {
      "id": 156,
      "route": 515,
      "name": "Conley Hanson"
    },
    {
      "id": 157,
      "route": 1837,
      "name": "Patton Edwards"
    },
    {
      "id": 158,
      "route": 2117,
      "name": "Avila Merritt"
    },
    {
      "id": 159,
      "route": 1841,
      "name": "Lucia Pollard"
    },
    {
      "id": 160,
      "route": 728,
      "name": "Schwartz Juarez"
    },
    {
      "id": 161,
      "route": 1385,
      "name": "John Campbell"
    },
    {
      "id": 162,
      "route": 1586,
      "name": "Neal Holder"
    },
    {
      "id": 163,
      "route": 1227,
      "name": "Bette Woodward"
    },
    {
      "id": 164,
      "route": 847,
      "name": "Fran Dickerson"
    },
    {
      "id": 165,
      "route": 2466,
      "name": "Scott Britt"
    },
    {
      "id": 166,
      "route": 793,
      "name": "Crawford Murray"
    },
    {
      "id": 167,
      "route": 1319,
      "name": "Molly Salazar"
    },
    {
      "id": 168,
      "route": 1440,
      "name": "Jody Leblanc"
    },
    {
      "id": 169,
      "route": 2017,
      "name": "Kirby Hart"
    },
    {
      "id": 170,
      "route": 2032,
      "name": "Robyn Hernandez"
    },
    {
      "id": 171,
      "route": 273,
      "name": "Reba Aguirre"
    },
    {
      "id": 172,
      "route": 2446,
      "name": "Figueroa Palmer"
    },
    {
      "id": 173,
      "route": 1560,
      "name": "Meredith Carpenter"
    },
    {
      "id": 174,
      "route": 2064,
      "name": "Jeanie Nielsen"
    },
    {
      "id": 175,
      "route": 932,
      "name": "Lang Freeman"
    },
    {
      "id": 176,
      "route": 924,
      "name": "Buchanan Stanton"
    },
    {
      "id": 177,
      "route": 196,
      "name": "Vanessa Rivera"
    },
    {
      "id": 178,
      "route": 916,
      "name": "Greer Bishop"
    },
    {
      "id": 179,
      "route": 1956,
      "name": "Cathryn Decker"
    },
    {
      "id": 180,
      "route": 994,
      "name": "Vicki Abbott"
    },
    {
      "id": 181,
      "route": 1543,
      "name": "Lisa Hammond"
    },
    {
      "id": 182,
      "route": 2437,
      "name": "Watson David"
    },
    {
      "id": 183,
      "route": 516,
      "name": "Morse Patrick"
    },
    {
      "id": 184,
      "route": 581,
      "name": "Benton Stevens"
    },
    {
      "id": 185,
      "route": 1216,
      "name": "Hopkins Nixon"
    },
    {
      "id": 186,
      "route": 1306,
      "name": "Jessica Avila"
    },
    {
      "id": 187,
      "route": 653,
      "name": "Jillian Valdez"
    },
    {
      "id": 188,
      "route": 1631,
      "name": "Mooney Madden"
    },
    {
      "id": 189,
      "route": 2327,
      "name": "Lesa Mcconnell"
    },
    {
      "id": 190,
      "route": 1862,
      "name": "Megan Solis"
    },
    {
      "id": 191,
      "route": 1092,
      "name": "Lloyd Watts"
    },
    {
      "id": 192,
      "route": 1046,
      "name": "Kerr Woods"
    },
    {
      "id": 193,
      "route": 243,
      "name": "Acevedo Bennett"
    },
    {
      "id": 194,
      "route": 1036,
      "name": "Huffman Leonard"
    },
    {
      "id": 195,
      "route": 429,
      "name": "Rivas Marquez"
    },
    {
      "id": 196,
      "route": 1548,
      "name": "Hughes Cochran"
    },
    {
      "id": 197,
      "route": 907,
      "name": "Parks Vang"
    },
    {
      "id": 198,
      "route": 1419,
      "name": "Prince Buchanan"
    },
    {
      "id": 199,
      "route": 365,
      "name": "Fuentes Chase"
    },
    {
      "id": 200,
      "route": 2262,
      "name": "Stanton Callahan"
    }
  ]
}